<?xml version="1.0" encoding="UTF-8"?>
<svg width="24px" height="24px" viewBox="0 0 24 24" shape-rendering="geometricPrecision" version="1.1" xmlns="http://www.w3.org/2000/svg" xmlns:xlink="http://www.w3.org/1999/xlink">
    <!-- Generator: Sketch 52.5 (67469) - http://www.bohemiancoding.com/sketch -->
    <title>04 / Element / Icon / Lock</title>
    <desc>Created with Sketch.</desc>
    <defs>
        <path d="M17.3333333,8.66666667 L16.3809524,8.66666667 L16.3809524,6.76190476 C16.3809524,4.13333333 14.247619,2 11.6190476,2 C8.99047619,2 6.85714286,4.13333333 6.85714286,6.76190476 L6.85714286,8.66666667 L5.9047619,8.66666667 C4.85714286,8.66666667 4,9.52380952 4,10.5714286 L4,20.0952381 C4,21.1428571 4.85714286,22 5.9047619,22 L17.3333333,22 C18.3809524,22 19.2380952,21.1428571 19.2380952,20.0952381 L19.2380952,10.5714286 C19.2380952,9.52380952 18.3809524,8.66666667 17.3333333,8.66666667 Z M11.6190476,17.2380952 C10.5714286,17.2380952 9.71428571,16.3809524 9.71428571,15.3333333 C9.71428571,14.2857143 10.5714286,13.4285714 11.6190476,13.4285714 C12.6666667,13.4285714 13.5238095,14.2857143 13.5238095,15.3333333 C13.5238095,16.3809524 12.6666667,17.2380952 11.6190476,17.2380952 Z M14.5714286,8.66666667 L8.66666667,8.66666667 L8.66666667,6.76190476 C8.66666667,5.13333333 9.99047619,3.80952381 11.6190476,3.80952381 C13.247619,3.80952381 14.5714286,5.13333333 14.5714286,6.76190476 L14.5714286,8.66666667 Z" id="path-1"></path>
    </defs>
    <g id="04-/-Element-/-Icon-/-Lock" stroke="none" stroke-width="1" fill="none" fill-rule="evenodd">
        <mask id="mask-2" fill="white">
            <use xlink:href="#path-1"></use>
        </mask>
        <use id="Mask" fill="#111111" fill-rule="nonzero" xlink:href="#path-1"></use>
        <rect id="Rectangle" fill="#0A1F44" mask="url(#mask-2)" x="0" y="0" width="24" height="24"></rect>
    </g>
</svg>