<?xml version="1.0" encoding="UTF-8"?>
<svg width="40px" height="40px" viewBox="0 0 16 14" version="1.1" xmlns="http://www.w3.org/2000/svg" xmlns:xlink="http://www.w3.org/1999/xlink">
    <g id="MasterCard" stroke="none" stroke-width="1" fill="none" fill-rule="evenodd">
        <g id="mc_acc" transform="translate(0.000000, 3.000000)">
            <g id="_Group_" transform="translate(2.366864, 0.662722)">
                <rect id="Rectangle" fill="#FF5F00" x="4.10982249" y="0.770650888" width="2.98224852" height="5.35952663"></rect>
                <path d="M4.2991716,3.45088757 C4.29834768,2.40520724 4.77837716,1.41721928 5.60094675,0.771597633 C4.20353045,-0.326622317 2.1967846,-0.166657084 0.99099625,1.13907406 C-0.214792097,2.44480521 -0.214792097,4.45791668 0.99099625,5.76364783 C2.1967846,7.06937898 4.20353045,7.22934421 5.60094675,6.13112426 C4.77811539,5.48529759 4.29805658,4.49690014 4.2991716,3.45088757 Z" id="_Path_2" fill="#EB001B"></path>
                <path d="M11.1157396,3.45088757 C11.1157092,4.75582299 10.3705961,5.94619175 9.19685257,6.51643966 C8.02310909,7.08668757 6.6268014,6.9367001 5.60094675,6.13017751 C6.42315742,5.48400775 6.90322304,4.49615115 6.90322304,3.4504142 C6.90322304,2.40467725 6.42315742,1.41682066 5.60094675,0.770650888 C6.6268014,-0.0358716994 8.02310909,-0.185859164 9.19685257,0.384388745 C10.3705961,0.954636654 11.1157092,2.14500541 11.1157396,3.44994083 L11.1157396,3.45088757 Z" id="Path" fill="#F79E1B"></path>
            </g>
        </g>
    </g>
</svg>