<?xml version="1.0" encoding="UTF-8"?>
<svg width="32px" height="32px" viewBox="0 0 32 32" version="1.1" xmlns="http://www.w3.org/2000/svg" xmlns:xlink="http://www.w3.org/1999/xlink">
    <!-- Generator: Sketch 52.5 (67469) - http://www.bohemiancoding.com/sketch -->
    <title>04 / Element / Icon / User</title>
    <desc>Created with Sketch.</desc>
    <defs>
        <path d="M16,3.8 C18.32,3.8 20.2,5.68 20.2,8 C20.2,10.32 18.32,12.2 16,12.2 C13.68,12.2 11.8,10.32 11.8,8 C11.8,5.68 13.68,3.8 16,3.8 Z M16,21.8 C21.94,21.8 28.2,24.72 28.2,26 L28.2,28.2 L3.8,28.2 L3.8,26 C3.8,24.72 10.06,21.8 16,21.8 Z M16,0 C11.58,0 8,3.58 8,8 C8,12.42 11.58,16 16,16 C20.42,16 24,12.42 24,8 C24,3.58 20.42,0 16,0 Z M16,18 C10.66,18 0,20.68 0,26 L0,32 L32,32 L32,26 C32,20.68 21.34,18 16,18 Z" id="path-1"></path>
    </defs>
    <g id="Documentation" stroke="none" stroke-width="1" fill="none" fill-rule="evenodd">
        <g id="2---Secondary-Components" transform="translate(-377.000000, -3308.000000)">
            <g id="Group" transform="translate(121.000000, 2983.000000)">
                <g id="04-/-Element-/-Icon-/-User" transform="translate(248.000000, 317.000000)">
                    <g id="↳🎨-Icon-Color" transform="translate(8.000000, 8.000000)">
                        <mask id="mask-2" fill="white">
                            <use xlink:href="#path-1"></use>
                        </mask>
                        <use id="Mask" fill="#111111" fill-rule="nonzero" xlink:href="#path-1"></use>
                        <g mask="url(#mask-2)" fill="#0A1F44" id="Black-/-Black-800">
                            <g transform="translate(-8.000000, -8.000000)">
                                <polygon points="0 0 48 0 48 48 0 48"></polygon>
                            </g>
                        </g>
                    </g>
                </g>
            </g>
        </g>
    </g>
</svg>