<svg width="51" height="12" viewBox="0 0 51 12" fill="none" xmlns="http://www.w3.org/2000/svg">
<path fill-rule="evenodd" clip-rule="evenodd" d="M8.38693 7.22461L6.59297 2.85568L4.80996 7.22461H8.38693ZM25.5804 11.9523L25.5695 3.37199L21.7716 11.9523H19.4744L15.6634 3.36324V11.9523H10.3384L9.33204 9.50862H3.87798L2.86067 11.9523H0.0166016L4.70713 0.996094H8.59695L13.0512 11.3704V0.996094H17.3261L20.7543 8.42788L23.9024 0.996094H28.2648V11.9523H25.5804ZM32.4347 9.71208V7.5309H38.1841V5.29502H32.4347V3.30198H39.0001L41.866 6.49609L38.8732 9.71208H32.4347ZM50.1795 11.9961H46.7754L43.5506 8.36662L40.199 11.9961H29.8247V1.03547H40.3587L43.5812 4.62776L46.9132 1.03547H50.3348L45.2439 6.51578L50.1795 11.9961Z" fill="#4295C5"/>
</svg>
